\relax 
\providecommand\zref@newlabel[2]{}
\providecommand\hyper@newdestlabel[2]{}
\abx@aux@refcontext{nyt/global//global/global}
\catcode `"\active 
\catcode `<\active 
\catcode `>\active 
\@nameuse{es@quoting}
\providecommand\HyperFirstAtBeginDocument{\AtBeginDocument}
\HyperFirstAtBeginDocument{\ifx\hyper@anchor\@undefined
\global\let\oldcontentsline\contentsline
\gdef\contentsline#1#2#3#4{\oldcontentsline{#1}{#2}{#3}}
\global\let\oldnewlabel\newlabel
\gdef\newlabel#1#2{\newlabelxx{#1}#2}
\gdef\newlabelxx#1#2#3#4#5#6{\oldnewlabel{#1}{{#2}{#3}}}
\AtEndDocument{\ifx\hyper@anchor\@undefined
\let\contentsline\oldcontentsline
\let\newlabel\oldnewlabel
\fi}
\fi}
\global\let\hyper@last\relax 
\gdef\HyperFirstAtBeginDocument#1{#1}
\providecommand\HyField@AuxAddToFields[1]{}
\providecommand\HyField@AuxAddToCoFields[2]{}
\@writefile{toc}{\boolfalse {citerequest}\boolfalse {citetracker}\boolfalse {pagetracker}\boolfalse {backtracker}\relax }
\@writefile{lof}{\boolfalse {citerequest}\boolfalse {citetracker}\boolfalse {pagetracker}\boolfalse {backtracker}\relax }
\@writefile{lot}{\boolfalse {citerequest}\boolfalse {citetracker}\boolfalse {pagetracker}\boolfalse {backtracker}\relax }
\babel@aux{spanish}{}
\pgfsyspdfmark {pgfid2}{0}{52099153}
\pgfsyspdfmark {pgfid1}{5966969}{45554842}
\@writefile{toc}{\defcounter {refsection}{0}\relax }\@writefile{toc}{\contentsline {chapter}{\numberline {1}Obtenci\'on de in\'oculos}{5}{chapter.1}\protected@file@percent }
\@writefile{lof}{\defcounter {refsection}{0}\relax }\@writefile{lof}{\addvspace {10\p@ }}
\@writefile{lot}{\defcounter {refsection}{0}\relax }\@writefile{lot}{\addvspace {10\p@ }}
\ttl@writefile{ptc}{\ttl@starttoc{default@1}}
\pgfsyspdfmark {pgfid4}{0}{52099153}
\pgfsyspdfmark {pgfid3}{5966969}{45554842}
\@writefile{toc}{\defcounter {refsection}{0}\relax }\@writefile{toc}{\contentsline {section}{\numberline {1.1}Materiales}{5}{section.1.1}\protected@file@percent }
\@writefile{toc}{\defcounter {refsection}{0}\relax }\@writefile{toc}{\contentsline {subsection}{\numberline {1.1.1}Micelio de hongo}{5}{subsection.1.1.1}\protected@file@percent }
\@writefile{lof}{\defcounter {refsection}{0}\relax }\@writefile{lof}{\contentsline {figure}{\numberline {1.1}{\ignorespaces Ejemplo de micelio madre}}{5}{figure.1.1}\protected@file@percent }
\newlabel{fig:micelio}{{1.1}{5}{Ejemplo de micelio madre}{figure.1.1}{}}
\@writefile{toc}{\defcounter {refsection}{0}\relax }\@writefile{toc}{\contentsline {subsection}{\numberline {1.1.2}Canguil}{5}{subsection.1.1.2}\protected@file@percent }
\@writefile{toc}{\defcounter {refsection}{0}\relax }\@writefile{toc}{\contentsline {subsection}{\numberline {1.1.3}Fundas de celof\'an}{6}{subsection.1.1.3}\protected@file@percent }
\@writefile{toc}{\defcounter {refsection}{0}\relax }\@writefile{toc}{\contentsline {subsection}{\numberline {1.1.4}Cuchara}{6}{subsection.1.1.4}\protected@file@percent }
\@writefile{toc}{\defcounter {refsection}{0}\relax }\@writefile{toc}{\contentsline {subsection}{\numberline {1.1.5}Alcohol potable (etanol) al 70\%}{6}{subsection.1.1.5}\protected@file@percent }
\@writefile{toc}{\defcounter {refsection}{0}\relax }\@writefile{toc}{\contentsline {subsection}{\numberline {1.1.6}Olla de presi\'on}{6}{subsection.1.1.6}\protected@file@percent }
\@writefile{toc}{\defcounter {refsection}{0}\relax }\@writefile{toc}{\contentsline {subsection}{\numberline {1.1.7}Mechero/vela}{7}{subsection.1.1.7}\protected@file@percent }
\@writefile{toc}{\defcounter {refsection}{0}\relax }\@writefile{toc}{\contentsline {subsection}{\numberline {1.1.8}Guantes de latex libre de talco}{7}{subsection.1.1.8}\protected@file@percent }
\@writefile{toc}{\defcounter {refsection}{0}\relax }\@writefile{toc}{\contentsline {subsection}{\numberline {1.1.9}Mascarilla}{7}{subsection.1.1.9}\protected@file@percent }
\@writefile{toc}{\defcounter {refsection}{0}\relax }\@writefile{toc}{\contentsline {section}{\numberline {1.2}Preparaci\'on del \'area de trabajo}{7}{section.1.2}\protected@file@percent }
\@writefile{toc}{\defcounter {refsection}{0}\relax }\@writefile{toc}{\contentsline {subsection}{\numberline {1.2.1}Consideraciones}{7}{subsection.1.2.1}\protected@file@percent }
\@writefile{toc}{\defcounter {refsection}{0}\relax }\@writefile{toc}{\contentsline {subsection}{\numberline {1.2.2}Limpieza de superficies}{7}{subsection.1.2.2}\protected@file@percent }
\@writefile{toc}{\defcounter {refsection}{0}\relax }\@writefile{toc}{\contentsline {section}{\numberline {1.3}Preparaci\'on del sustrato}{8}{section.1.3}\protected@file@percent }
\@writefile{toc}{\defcounter {refsection}{0}\relax }\@writefile{toc}{\contentsline {subsection}{\numberline {1.3.1}Hidrataci\'on}{8}{subsection.1.3.1}\protected@file@percent }
\@writefile{lof}{\defcounter {refsection}{0}\relax }\@writefile{lof}{\contentsline {figure}{\numberline {1.2}{\ignorespaces Remojar el canguil durante toda la noche antes de la inoculaci\'on del micelio}}{8}{figure.1.2}\protected@file@percent }
\newlabel{fig:remojo}{{1.2}{8}{Remojar el canguil durante toda la noche antes de la inoculaci\'on del micelio}{figure.1.2}{}}
\@writefile{toc}{\defcounter {refsection}{0}\relax }\@writefile{toc}{\contentsline {subsection}{\numberline {1.3.2}Esterilizaci\'on}{8}{subsection.1.3.2}\protected@file@percent }
\@writefile{toc}{\defcounter {refsection}{0}\relax }\@writefile{toc}{\contentsline {subsection}{\numberline {1.3.3}Enfundado}{8}{subsection.1.3.3}\protected@file@percent }
\newlabel{subsec:enfundado}{{1.3.3}{8}{Enfundado}{subsection.1.3.3}{}}
\@writefile{lof}{\defcounter {refsection}{0}\relax }\@writefile{lof}{\contentsline {figure}{\numberline {1.3}{\ignorespaces Granos de canguil despu\'es de ser remojados durante la noche}}{9}{figure.1.3}\protected@file@percent }
\newlabel{fig:presion}{{1.3}{9}{Granos de canguil despu\'es de ser remojados durante la noche}{figure.1.3}{}}
\@writefile{toc}{\defcounter {refsection}{0}\relax }\@writefile{toc}{\contentsline {section}{\numberline {1.4}Proceso de inoculaci\'on}{9}{section.1.4}\protected@file@percent }
\@writefile{toc}{\defcounter {refsection}{0}\relax }\@writefile{toc}{\contentsline {subsection}{\numberline {1.4.1}Flameado}{10}{subsection.1.4.1}\protected@file@percent }
\newlabel{sebsec:flameado}{{1.4.1}{10}{Flameado}{subsection.1.4.1}{}}
\@writefile{toc}{\defcounter {refsection}{0}\relax }\@writefile{toc}{\contentsline {subsubsection}{Agregar alcohol}{10}{section*.2}\protected@file@percent }
\@writefile{lof}{\defcounter {refsection}{0}\relax }\@writefile{lof}{\contentsline {figure}{\numberline {1.4}{\ignorespaces Secci\'on de la cuchara para manipulaci\'on y flameo. La secci\'on marcada en rojo es la aconsejable para esterilizar mediante flameo, mientras que la secci\'on marcada en azul se deja libre para su manipulaci\'on.}}{10}{figure.1.4}\protected@file@percent }
\newlabel{fig:cuchara}{{1.4}{10}{Secci\'on de la cuchara para manipulaci\'on y flameo. La secci\'on marcada en rojo es la aconsejable para esterilizar mediante flameo, mientras que la secci\'on marcada en azul se deja libre para su manipulaci\'on}{figure.1.4}{}}
\@writefile{toc}{\defcounter {refsection}{0}\relax }\@writefile{toc}{\contentsline {subsubsection}{Inicio de la llama}{11}{section*.3}\protected@file@percent }
\@writefile{lof}{\defcounter {refsection}{0}\relax }\@writefile{lof}{\contentsline {figure}{\numberline {1.5}{\ignorespaces Zonas de la llama, seg\'un su temperatura. La parte en rojo de la llama llega a temperaturas m\'as altas que la parte azul de la misma.}}{11}{figure.1.5}\protected@file@percent }
\newlabel{fig:llama}{{1.5}{11}{Zonas de la llama, seg\'un su temperatura. La parte en rojo de la llama llega a temperaturas m\'as altas que la parte azul de la misma}{figure.1.5}{}}
\@writefile{toc}{\defcounter {refsection}{0}\relax }\@writefile{toc}{\contentsline {subsubsection}{Enfriamiento}{11}{section*.4}\protected@file@percent }
\@writefile{toc}{\defcounter {refsection}{0}\relax }\@writefile{toc}{\contentsline {subsection}{\numberline {1.4.2}Transferencia de micelio}{11}{subsection.1.4.2}\protected@file@percent }
\@writefile{lof}{\defcounter {refsection}{0}\relax }\@writefile{lof}{\contentsline {figure}{\numberline {1.6}{\ignorespaces Micelio de hongos de ostra \textit  {Pleurotus ostreatus} inoculado en sustrato org\'anico (canguil).}}{12}{figure.1.6}\protected@file@percent }
\newlabel{fig:inoculo}{{1.6}{12}{Micelio de hongos de ostra \textit {Pleurotus ostreatus} inoculado en sustrato org\'anico (canguil)}{figure.1.6}{}}
\@writefile{toc}{\defcounter {refsection}{0}\relax }\@writefile{toc}{\contentsline {section}{\numberline {1.5}Almacenamiento}{12}{section.1.5}\protected@file@percent }
\@writefile{toc}{\defcounter {refsection}{0}\relax }\@writefile{toc}{\contentsline {subsection}{\numberline {1.5.1}almacenamiento}{12}{subsection.1.5.1}\protected@file@percent }
\ttl@finishall
